/var/local/GIT/sdis81-ldap_synchronizer/src/main/java/xivo/ldapconnector/LDAPSynchronizer.java
/var/local/GIT/sdis81-ldap_synchronizer/src/main/java/xivo/ldapconnector/UserModifierImpl.java
/var/local/GIT/sdis81-ldap_synchronizer/src/main/java/xivo/ldapconnector/DeltaGenerator.java
/var/local/GIT/sdis81-ldap_synchronizer/src/main/java/xivo/ldapconnector/ObjectGUID_Tools.java
/var/local/GIT/sdis81-ldap_synchronizer/src/main/java/xivo/ldapconnector/InitializerImpl.java
/var/local/GIT/sdis81-ldap_synchronizer/src/main/java/xivo/ldapconnector/UserIdentifierImpl.java
/var/local/GIT/sdis81-ldap_synchronizer/src/main/java/xivo/ldapconnector/LDAPModule.java
